-----------------------------------------------------------------------
概要
-----------------------------------------------------------------------
開催場所: IRC #debianjp @ osdn.debian.or.jp
	   漢字コード: iso-2022-jp
会議名： Debian JP 定例会議
開催時間： 2007年10月24日(水) 21:30-22:25
出席者: 
  kmuto
  nori1
  dancerj
  yamamoto
  takaya
  Henrich

-----------------------------------------------------------------------
議題
-----------------------------------------------------------------------
  1. 日本語フォントの扱い
  2. ビデオカンファレンスの検討
  3. JP Webページ
  4. Debian.org 翻訳作業の進捗
  5. IPA フォント
  6. ftp.jp.debian.orgをcdn.debian.or.jpに向ける話
  7. osdn.debian.or.jp upgrade
  8. 東京エリアDebian勉強会11月-12月企画
  9. 関西Debian勉強会
  10. KOF(関西オープンフォーラム) 11月9-10日開催 http://k-of.jp/
  11. Debconf 8 (アルゼンチン) 関連
  12. Debian JP 新規加入者について報告
  13. 次回の日程

-----------------------------------------------------------------------
[1. 日本語フォントの扱い]
-----------------------------------------------------------------------

目的: 
レガシーである kochi-gothic/mincho からの移行計画

前回までの経緯: 
・ttf-japanese を alternatives で提供する
　→  進展なし。
　　ポリシーの管理者をつついてみる。
・fontconfig の BTS (Bug#435971) はまだ対処されていない。l10nタグを付
けておくとよいのではないか
　→  進展なし。
　・パッチの形で出してみてはどうか？(dancerj)
　・fontconfig NMU 9-day した。(dancerj)
    

議論: 
・ttf-japanese を alternatives で提供する件(「つつく」)の進展を報告さ
れたし＞iwamatsuさん
・#435971をNMUしたfontconfigが入ったので、後者の話はクローズ。
    


-----------------------------------------------------------------------
[2. ビデオカンファレンスの検討]
-----------------------------------------------------------------------

目的: 
勉強会などのイベントでビデオカンファレンス技術の活用ができないかという
検討

前回までの経緯: 
　・次回はOSCで行う予定。
　　→インフラの問題でできず。
　・次回の勉強会でknokさんがやる予定。
    

議論: 
　・次回の勉強会でknokさんがやる予定。中継の技術は蓄積されているが相互
「カンファレンス」についてはまだたまっていない？
    


-----------------------------------------------------------------------
[3. JP Webページ]
-----------------------------------------------------------------------

目的: 
Debian JPページの改善

前回までの経緯: 
・ダウンロードの案内をより簡易にする → http://get.debian.net の i18n 
化待ち
・DDTP のページが古い。要修正。
　- DDTPについて状況整理担当者はHenrich。
　- DDTPページの古い内容は間違っているので捨てるべし。
　-実際の作業者の感覚がわからないのが困っている。(Henrich)
    

議論: 
・特にblog側で見落しやすい点についてコミット時にチェックするフックスク
リプトを作り、設定した (kmuto)。なお、git-svnでの操作で失敗した際にはgit
-reset --softでコミットを作り直すという方法がある。
・DDTPについての進捗が不明。＞Henrichさん。DDTPはpackages.debian.org上
での翻訳descriptionで使われているほか、Ubuntuでは更新同期が正しく行われ
ているので、利用度は高くなっている。
    


-----------------------------------------------------------------------
[4. Debian.org 翻訳作業の進捗]
-----------------------------------------------------------------------

目的: 
Debian.org Webページ翻訳作業の進捗状況

前回までの経緯: 
・DDTPの作業方法についてはdebian-develで中心作業者の角田氏・田村氏から
コメントあり。これらの情報をもとにJPページで説明を掲載できるとよい
 ・JPページではDDTPの説明が古いところがあるので、整理しておく(図式も加
える？)
 ・DDTPサーバとやりとりするデータはUTF-8でよいという方向で決定。現行EUC
-JPなので、管理者に要申請
 ・ユーザ向けDDTPファイルTranslation-jaが古くかつEUC-JPのままな問題は、DDTP
のマスターサイトからミラーするようになれば解決する。最終的にはDebian Admin
とDDTP Adminの間で話をつけてもらうしかない話。同期の見込みの状況をdancerj
からgrisuに質問する
 ・DSA 以外は低調
 ・po 翻訳は時間をとってやりたい。(kmuto)
 　→po 翻訳 party をするか？
 ・net-tools/ja-transはkmutoさんがNMU.
 ・manpages-jaの整理もしたい。
 　→　JMも含めてメンテナンスを考える必要がある。
 　　 メンテナはアクティブなんだけど、manpages-ja で Debian のバイナリ
に一致していないところがあるのが課題
    

議論: 
・kmutoの抱えていたpoについてはひととおり更新。poスカッシュパーティに
ついても検討 (kmuto)
・debconf poはdebian-i18nメーリングリストで原文修正が進められているこ
とがあるので、そちらのメーリングリストも確認しておくとよい
・packages.debian.orgのja.poを翻訳済み (nori1)
・debtags.ja.poを作業中 (nori1)
・net-toolsはNMU upload済み (kmuto)。ja-trans REMOVEもメンテナのunoさ
んから申請済み(#447093)。 (kmuto)
・manpages-jaの整理の件は保留 (担当は？)
    


-----------------------------------------------------------------------
[5. IPA フォント]
-----------------------------------------------------------------------

目的: 
IPAフォントのライセンスの翻訳パッケージングについての進捗状況

前回までの経緯: 
・翻訳の件とITP/メンテナンスを gotomさんがやる方向で動いている。
    

議論: 
・gotomさん待ち。
    


-----------------------------------------------------------------------
[6. ftp.jp.debian.orgをcdn.debian.or.jpに向ける話]
-----------------------------------------------------------------------

目的: 
ftp.jp.debian.orgをcdn.debian.or.jp に向ける件の進捗状況

前回までの経緯: 
・ftp.jp.debian.orgをcdn.debian.or.jpに向ける話が動いている。
　- これが実現するとftp.jp.debian.orgの安定度はあがる。
　- しかし、ftp://が使えなくなる、rsync//の先が不定になる。
　- 実際にDNS変更がなされたときにはアナウンス出すことになる。
　- ftp はnara などにふったりする必要あり。
    

議論: 
・10/24にDNS変更され、debian-announce にアナウンスを行った (kmuto)。
・ftp2.jp.debian.orgがまだプライマリリスト(http://www.debian.org/mirror
/list)に入っており、packages.debian.orgからのダウンロードの候補にも使わ
れるが、現時点で大きな問題はないのでこのままで。
・本件クローズ。
    


-----------------------------------------------------------------------
[7. osdn.debian.or.jp upgrade]
-----------------------------------------------------------------------

目的: 
osdn.debian.or.jp upgrade の進捗状況

前回までの経緯: 
・osdn.debian.or.jp を upgrade する話がある。
　- sugiさんのNOC行きタイミングにあわせて 行うよてい。
　- 日程は未定。
    

議論: 
・osdn側で喫緊の予定がないのと今忙しいようなので当面(年末または年明け
まで)保留。(kmuto)
    


-----------------------------------------------------------------------
[8. 東京エリアDebian勉強会11月-12月企画]
-----------------------------------------------------------------------

目的: 
関東地区での Debian 利用者／開発者予備軍にメールや web だけなどでは伝
えにくい情報を伝え、開発や利用を促進する

前回までの経緯: 
・10月5,6日のOSC Tokyo/Fall。担当者は山根さん。
　　http://lists.debian.or.jp/debian-devel/200710/msg00014.html
　　セミナーとミニセミナーの内容が足りないのでだれか追記してほしい。
　　報告書としてできたらそれでリリースしてしまって、HPさんに報告する。
・11月勉強会
　- 11/17 に開催予定。場所は荻窪
　　1. bluetooth 紹介 （野首さん）　30分程度
　　2. live-helperの話。(iwamatsu)
　　3. ML350、ML110インストール・動作確認報告(dancerj)

 ・12月勉強会
  - 未定
    

議論: 
・11月のアナウンスをそろそろ検討する。knokさんとiwamatsuさんに再確認。
(dancerj)
  5分程度でtomoyo対応の話およびKOF参加報告を行う (Henrich)
・12月は忘年会を中心に (dancerj)。1年の勉強会の反省会を行ってはどうか(nori1
)。
・来年の進め方を検討。3年続けているので少し変えてみたい (dancerj)。
    


-----------------------------------------------------------------------
[9. 関西Debian勉強会]
-----------------------------------------------------------------------

目的: 
関西地域にてDebian勉強会を継続開催する。

前回までの経緯: 
・10月7日の勉強会は無事終了
  - 場所が分かりにくかったらしく、始まっても講師の方が、会場に到着して
いない状況で司会としては困った。しかし、簡単にアンケートをしたところ、場
所は分かりにくいが非常にアクセスの良い場所との事。初めての方が多く、積極
的に質問もして頂いた。今回は時間通りに進む事が出来た
  - 懇親会は、規定の金額でのオーダーストップの形に変えると1人3000円で
収まり、非常に好評
  - 読書会をしたらどうか？ Rubyの勉強会でおもしろかった。との事で。読
みたい本は、 The Debian System―その概念と技法
・１月 勉強会
　いつもの場所が使えないので、考える必要がある。
・時間が長すぎる感じがあるので、今後変更をするかもしれない
・アップロードスペースについては議論中
  - JPブログに告知の際、前回の模様を写真付きで掲載する？ 掲載の場合、
画像は外部サーバよりJPサーバにあったほうが消える心配がなくてよさそう
  - 前回報告を画像+キャプション付きくらいのものにして、詳細はwikiなど
にまとめておくのでもよいのでは
  - 関東・関西で共有する
・関西側の資料がまだ散逸している
    

議論: 
・資料はまだ未整理 (takaya)
・1月は新年会とし、2月は大阪近辺で通常の勉強会 (takaya)
・大阪近辺で関西Debian勉強会とは別個に「読書会」を開催した。評判は上々
 (takaya) (http://d.hatena.ne.jp/hira_sosuke/20071018/1192705897)
・東京でも読書会を検討？ (dancerj, nori1, yamamoto)
    


-----------------------------------------------------------------------
[10. KOF(関西オープンフォーラム) 11月9-10日開催 http://k-of.jp/]
-----------------------------------------------------------------------

目的: 
関西オープンフォーラムへの参加

前回までの経緯: 
・関西Debian勉強会および最近のDebianについてを、ブースおよびセッション
で紹介
・セッションを土曜日の最終に回してもらうことを検討中。
・協力者状況
　- takaya (土曜日授業が入っているので，午前中来れるのか分からない)
　- 中尾さんこれない
　- ggさん未定。
・cotocotoの参加者にメールで募集を行った。
  いつものメンバーと、メールで募集を行った時に返信があった人を専用のML
に入れ、そろそろどのようにするか考えていきたい。
  OSC2007kansai-debian の添付ファイルを含めた、バックアップも行ったの
で、関西 Debian 勉強会のイベント専用のMLを作りたい。（前回と同じように、JP
の主要な人たちには入って頂く形で）
    

議論: 
・dancerjさんが土曜日に出席予定
・協力者はtakayaさん、川江さん、倉敷さん、名村さん、のがたさん、榎さん、dancerj
さん、Henrichさん
・ブースではDVD配布、フライヤー配布、物販としてステッカーとあんどきゅ
めんとでびあん
・9日(金)はブース出展せず。
・10日(土)にブース出展、および講演セッション(時間帯未定、50分)
・講演内容・講師については検討中。ASAPで決定 (takaya)
    


-----------------------------------------------------------------------
[11. Debconf 8 (アルゼンチン) 関連]
-----------------------------------------------------------------------

目的: 
2008年8月2日-17日(会議は10-16)にアルゼンチンのマルデルプラタで開催され
るDebconf 8への参加・発表予定など。

議論: 
・情報は http://debconf8.debconf.org/ に乗り始めている。http://kmuto.jp
/d/index.cgi/debian/debconf8-announced.htm も参照。
・行程の連結が非常に不便なので、日本からだと往復共にすごい時間がかかる
かも…。
・dancerjさんが参加予定。kmutoは検討中。
・Debconf 9の開催候補地募集が始まっている。Roland Masが「Debian JPカモ
ン！」と言っている。検討する余地はあるか？ マルデルプラタや(Debconf9に名
乗りを上げている)Extremaduraのような不便な立地のところが許されるなら、日
本の地方でも十分Okなのかも。
    


-----------------------------------------------------------------------
[12. Debian JP 新規加入者について報告]
-----------------------------------------------------------------------

目的: 
Debian JP に参入した人がいれば確認する

前回までの経緯: 
とくになし。
    

議論: 
特になし。
yamamotoさんが参加予定。
    


-----------------------------------------------------------------------
[13. 次回の日程]
-----------------------------------------------------------------------

目的: 
次回の開催の日時

前回までの経緯: 
・10月24日水曜日 21:30-22:30 開催予定 kmuto 司会予定
 ・11月7日水曜日 21:30-22:30 開催予定
 ・11月21日水曜日 21:30-22:30 開催予定
 ・12月05日水曜日 21:30-22:30 開催予定
    

議論: 
・11月7日水曜日 21:30-22:30 開催予定 kmuto 司会予定
 ・11月21日水曜日 21:30-22:30 開催予定
 ・12月05日水曜日 21:30-22:30 開催予定
 ・12月19日水曜日 21:30-22:30 開催予定
    

